{
  "cordova-plugin-whitelist": {
    "source": {
      "type": "registry",
      "id": "cordova-plugin-whitelist@1"
    },
    "is_top_level": true,
    "variables": {}
  },
  "cordova-sms-plugin": {
    "source": {
      "type": "registry",
      "id": "cordova-sms-plugin"
    },
    "is_top_level": true,
    "variables": {}
  },
  "cordova-plugin-background-mode": {
    "source": {
      "type": "registry",
      "id": "cordova-plugin-background-mode"
    },
    "is_top_level": true,
    "variables": {}
  },
  "cordova-plugin-device": {
    "source": {
      "type": "registry",
      "id": "cordova-plugin-device"
    },
    "is_top_level": false,
    "variables": {}
  }
}